tidymodels
…
Tuning: The tune package allows you to optimize model hyperparameters, which can substantially improve model performance.

Model Explanation: The vip and pdp packages in tidymodels allow for effective visual interpretation of models, making it easier to explain your models’ predictions.

Building a model - 1

parnsip package

air<-airquality %>%
  clean_names() %>% 
  as_tibble()

air

# A tibble: 153 × 6
   ozone solar_r  wind  temp month   day
   <int>   <int> <dbl> <int> <int> <int>
 1    41     190   7.4    67     5     1
 2    36     118   8      72     5     2
 3    12     149  12.6    74     5     3
 4    18     313  11.5    62     5     4
 5    NA      NA  14.3    56     5     5
 6    28      NA  14.9    66     5     6
 7    23     299   8.6    65     5     7
 8    19      99  13.8    59     5     8
 9     8      19  20.1    61     5     9
10    NA     194   8.6    69     5    10
# ℹ 143 more rows
…
Applying a model to the training set and extracting features

flights_fit <- 
  flights_wflow %>% 
  fit(data = train_data)

extract_fit_parsnip()

flights_fit %>% 
  extract_fit_parsnip()%>% 
  tidy()

# A tibble: 157 × 5
   term                         estimate std.error statistic   p.value
   <chr>                           <dbl>     <dbl>     <dbl>     <dbl>
 1 (Intercept)                   7.84    7.27           1.08 2.81e-  1
 2 dep_time                     -0.00173 0.0000376    -46.0  0        
 3 air_time                     -0.0440  0.00148      -29.8  4.98e-195
 4 distance                      0.00538 0.00399        1.35 1.77e-  1
 5 date_USChristmasDay           1.30    0.445          2.91 3.58e-  3
 6 date_USColumbusDay            0.797   0.524          1.52 1.28e-  1
 7 date_USCPulaskisBirthday      0.908   0.384          2.37 1.80e-  2
 8 date_USDecorationMemorialDay  0.370   0.279          1.33 1.85e-  1
 9 date_USElectionDay            0.837   0.473          1.77 7.71e-  2
10 date_USGoodFriday             1.67    0.522          3.20 1.37e-  3
# ℹ 147 more rows

Browsing results

predict()

augment()

augment(flights_fit, test_data) %>%
    select(arr_delay, time_hour, flight, .pred_class, .pred_on_time)

# A tibble: 15,000 × 5
   arr_delay time_hour           flight .pred_class .pred_on_time
   <fct>     <dttm>               <int> <fct>               <dbl>
 1 on_time   2013-08-19 19:00:00   4374 late                0.414
 2 on_time   2013-01-29 16:00:00    250 on_time             0.837
 3 on_time   2013-03-06 17:00:00    543 on_time             0.914
 4 late      2013-06-30 15:00:00   2179 on_time             0.657
 5 on_time   2013-07-30 08:00:00   4388 on_time             0.851
 6 on_time   2013-07-06 20:00:00   2391 on_time             0.812
 7 on_time   2013-03-15 08:00:00    219 on_time             0.959
 8 on_time   2013-11-02 15:00:00   3155 on_time             0.914
 9 on_time   2013-06-12 08:00:00    181 on_time             0.952
10 on_time   2013-01-03 14:00:00   1618 on_time             0.831
# ℹ 14,990 more rows
…
